C:\Users\Master\eclipse-workspace\springboot-cra\src\main\java\com\javainuse\controller\EsnController.java
C:\Users\Master\eclipse-workspace\springboot-cra\src\main\java\com\javainuse\model\Client.java
C:\Users\Master\eclipse-workspace\springboot-cra\src\main\java\com\javainuse\repository\TacheRepository.java
C:\Users\Master\eclipse-workspace\springboot-cra\src\main\java\com\javainuse\controller\ConsultantController.java
C:\Users\Master\eclipse-workspace\springboot-cra\src\main\java\com\javainuse\model\Facture.java
C:\Users\Master\eclipse-workspace\springboot-cra\src\main\java\com\javainuse\SpringBootHelloWorldApplication.java
C:\Users\Master\eclipse-workspace\springboot-cra\src\main\java\com\javainuse\controller\TacheController.java
C:\Users\Master\eclipse-workspace\springboot-cra\src\main\java\com\javainuse\model\Conges.java
C:\Users\Master\eclipse-workspace\springboot-cra\src\main\java\com\javainuse\repository\EsnRepository.java
C:\Users\Master\eclipse-workspace\springboot-cra\src\main\java\com\javainuse\controller\OpportuniteController.java
C:\Users\Master\eclipse-workspace\springboot-cra\src\main\java\com\javainuse\repository\ProjetRepository.java
C:\Users\Master\eclipse-workspace\springboot-cra\src\main\java\com\javainuse\repository\AffectationRepository.java
C:\Users\Master\eclipse-workspace\springboot-cra\src\main\java\com\javainuse\repository\UserRepository.java
C:\Users\Master\eclipse-workspace\springboot-cra\src\main\java\com\javainuse\controller\MyController.java
C:\Users\Master\eclipse-workspace\springboot-cra\src\main\java\com\javainuse\sendMailing.java
C:\Users\Master\eclipse-workspace\springboot-cra\src\main\java\com\javainuse\controller\CongesController.java
C:\Users\Master\eclipse-workspace\springboot-cra\src\main\java\com\javainuse\model\User.java
C:\Users\Master\eclipse-workspace\springboot-cra\src\main\java\com\javainuse\controller\HelloWorldController.java
C:\Users\Master\eclipse-workspace\springboot-cra\src\main\java\com\javainuse\controller\ClientController.java
C:\Users\Master\eclipse-workspace\springboot-cra\src\main\java\com\javainuse\config\JwtRequestFilter.java
C:\Users\Master\eclipse-workspace\springboot-cra\src\main\java\com\javainuse\config\JwtTokenUtil.java
C:\Users\Master\eclipse-workspace\springboot-cra\src\main\java\com\javainuse\repository\ConsultantRepository.java
C:\Users\Master\eclipse-workspace\springboot-cra\src\main\java\com\javainuse\config\JwtAuthenticationEntryPoint.java
C:\Users\Master\eclipse-workspace\springboot-cra\src\main\java\com\javainuse\controller\FactureController.java
C:\Users\Master\eclipse-workspace\springboot-cra\src\main\java\com\javainuse\model\Opportunite.java
C:\Users\Master\eclipse-workspace\springboot-cra\src\main\java\com\javainuse\controller\ProspectController.java
C:\Users\Master\eclipse-workspace\springboot-cra\src\main\java\com\javainuse\model\Prospect.java
C:\Users\Master\eclipse-workspace\springboot-cra\src\main\java\com\javainuse\service\JwtUserDetailsService.java
C:\Users\Master\eclipse-workspace\springboot-cra\src\main\java\com\javainuse\Mailesn.java
C:\Users\Master\eclipse-workspace\springboot-cra\src\main\java\com\javainuse\config\WebSecurityConfig.java
C:\Users\Master\eclipse-workspace\springboot-cra\src\main\java\com\javainuse\repository\ProspectRepository.java
C:\Users\Master\eclipse-workspace\springboot-cra\src\main\java\com\javainuse\controller\pController.java
C:\Users\Master\eclipse-workspace\springboot-cra\src\main\java\com\javainuse\model\Projet.java
C:\Users\Master\eclipse-workspace\springboot-cra\src\main\java\com\javainuse\model\Consultant.java
C:\Users\Master\eclipse-workspace\springboot-cra\src\main\java\com\javainuse\model\Esn.java
C:\Users\Master\eclipse-workspace\springboot-cra\src\main\java\com\javainuse\repository\FactureRepository.java
C:\Users\Master\eclipse-workspace\springboot-cra\src\main\java\com\javainuse\model\LoginForm.java
C:\Users\Master\eclipse-workspace\springboot-cra\src\main\java\com\javainuse\repository\CongesRepository.java
C:\Users\Master\eclipse-workspace\springboot-cra\src\main\java\com\javainuse\model\JwtResponse.java
C:\Users\Master\eclipse-workspace\springboot-cra\src\main\java\com\javainuse\model\Affectation.java
C:\Users\Master\eclipse-workspace\springboot-cra\src\main\java\com\javainuse\repository\OpportuniteRepository.java
C:\Users\Master\eclipse-workspace\springboot-cra\src\main\java\com\javainuse\model\JwtRequest.java
C:\Users\Master\eclipse-workspace\springboot-cra\src\main\java\com\javainuse\repository\LogRepository.java
C:\Users\Master\eclipse-workspace\springboot-cra\src\main\java\com\javainuse\model\Candidat.java
C:\Users\Master\eclipse-workspace\springboot-cra\src\main\java\com\javainuse\repository\ClientRepository.java
C:\Users\Master\eclipse-workspace\springboot-cra\src\main\java\com\javainuse\model\ChangePasswordForm.java
C:\Users\Master\eclipse-workspace\springboot-cra\src\main\java\com\javainuse\controller\AffectationController.java
C:\Users\Master\eclipse-workspace\springboot-cra\src\main\java\com\javainuse\SmtpMailSender.java
C:\Users\Master\eclipse-workspace\springboot-cra\src\main\java\com\javainuse\controller\JwtAuthenticationController.java
C:\Users\Master\eclipse-workspace\springboot-cra\src\main\java\com\javainuse\model\Tache.java
C:\Users\Master\eclipse-workspace\springboot-cra\src\main\java\com\javainuse\repository\CandidatRepository.java
C:\Users\Master\eclipse-workspace\springboot-cra\src\main\java\com\javainuse\controller\CandidatController.java
